…
```
## group_by: 2 grouping variables (label, source)
## summarise: now 19 rows and 3 columns, one group variable remaining (label)
```

```r
all_scores <- bind_rows(institutional_scores, personal_scores)
all_scores
```

```
## # A tibble: 38 × 5
## # Groups:   label [19]
##    label                                     source         Mean Lower Upper
##    <chr>                                     <chr>         <dbl> <dbl> <dbl>
##  1 "Being collegial, helpful and respectful" institutional  2.61  2.41  2.79
##  2 "Contributing to peer review"             institutional  2.87  2.70  3.04
##  3 "Creating intellectual property "         institutional  2.69  2.51  2.88
##  4 "Developing industry collaborations"      institutional  2.45  2.28  2.60
##  5 "Engaging policy makers"                  institutional  2.72  2.56  2.88
##  6 "Engaging with the public "               institutional  2.54  2.38  2.71
##  7 "Generating a large number of citations"  institutional  2.16  2     2.32
##  8 "Generating funding"                      institutional  1.36  1.24  1.47
##  9 "Generating high-quality publications"    institutional  1.67  1.53  1.81
## 10 "Giving invited talks and keynotes"       institutional  2.13  1.99  2.27
## # … with 28 more rows
```
…
```r
final_scores
```

```
## # A tibble: 38 × 6
## # Groups:   label [19]
##    label                                     source     Mean Lower Upper    diff
##    <chr>                                     <chr>     <dbl> <dbl> <dbl>   <dbl>
##  1 "Being collegial, helpful and respectful" institut…  2.61  2.41  2.79 -1.03  
##  2 "Contributing to peer review"             institut…  2.87  2.70  3.04 -1.02  
##  3 "Creating intellectual property "         institut…  2.69  2.51  2.88  0.0355
##  4 "Developing industry collaborations"      institut…  2.45  2.28  2.60  0.0549
##  5 "Engaging policy makers"                  institut…  2.72  2.56  2.88 -0.443 
##  6 "Engaging with the public "               institut…  2.54  2.38  2.71 -0.471 
##  7 "Generating a large number of citations"  institut…  2.16  2     2.32 -0.0428
##  8 "Generating funding"                      institut…  1.36  1.24  1.47  0.561 
##  9 "Generating high-quality publications"    institut…  1.67  1.53  1.81 -0.318 
## 10 "Giving invited talks and keynotes"       institut…  2.13  1.99  2.27 -0.167 
## # … with 28 more rows
```
…
```r
all_Values
```

```
## # A tibble: 7,218 × 6
##       id val                               num_val source        label     group
##    <dbl> <chr>                               <int> <chr>         <chr>     <chr>
##  1    10 Very important                          1 institutional Publishi… Trad…
##  2    10 Very important                          1 institutional Generati… Trad…
##  3    10 Very important                          1 institutional Generati… Alte…
##  4    10 Somewhat important                      2 institutional Publishi… Trad…
##  5    10 Neither important nor unimportant       3 institutional Openly s… Alte…
##  6    10 Neither important nor unimportant       3 institutional Openly s… Alte…
##  7    10 Neither important nor unimportant       3 institutional Openly s… Alte…
##  8    10 Neither important nor unimportant       3 institutional Engaging… Soci…
##  9    10 Somewhat important                      2 institutional Developi… Soci…
## 10    10 Somewhat important                      2 institutional Creating… Soci…
## # … with 7,208 more rows
```
…
```r
scores_by_individual
```

```
## # A tibble: 1,947 × 8
## # Groups:   id, group [990]
##       id group                       source score disci…¹ acad_…² gender acad_…³
##    <dbl> <chr>                       <chr>  <dbl> <chr>     <dbl> <chr>  <chr>  
##  1    10 Academic leadership         insti…  1.5  Physic…      36 Male   Profes…
##  2    10 Academic leadership         perso…  1.75 Physic…      36 Male   Profes…
##  3    10 Alternative academic impact insti…  2.5  Physic…      36 Male   Profes…
##  4    10 Alternative academic impact perso…  2.5  Physic…      36 Male   Profes…
##  5    10 Community activities        insti…  3.25 Physic…      36 Male   Profes…
##  6    10 Community activities        perso…  2.75 Physic…      36 Male   Profes…
##  7    10 Societal & economic impact  insti…  2.5  Physic…      36 Male   Profes…
##  8    10 Societal & economic impact  perso…  2.5  Physic…      36 Male   Profes…
##  9    10 Traditional academic impact insti…  1.33 Physic…      36 Male   Profes…
## 10    10 Traditional academic impact perso…  1.33 Physic…      36 Male   Profes…
## # … with 1,937 more rows, and abbreviated variable names
## #   ¹​disciplines_recoded_wos, ²​acad_age, ³​acad_rol
```
…
