…
```
##         converted 'X51' from character to factor (0 new NA)
```

```
##         new variable 'OA_rate' (double) with 57 unique values and 1% NA
```

```r
oa_practice
```

```
## # A tibble: 198 × 5
##    X27                               X51                       X68   X69 OA_rate
##    <fct>                             <fct>                   <dbl> <dbl>   <dbl>
##  1 Neither important nor unimportant Neither important nor …    15     6   0.4  
##  2 Neither important nor unimportant Very important             75    30   0.4  
##  3 I don't know                      Very important             60     3   0.05 
##  4 Neither important nor unimportant Very unimportant           12    11   0.917
##  5 Neither important nor unimportant Neither important nor …    10     7   0.7  
##  6 Very important                    Very important             33    25   0.758
##  7 Neither important nor unimportant Very important              3     2   0.667
##  8 Neither important nor unimportant Somewhat important         10     6   0.6  
##  9 Neither important nor unimportant Somewhat important         55    35   0.636
## 10 Somewhat important                Very important              4     4   1    
## # … with 188 more rows
```
…
```
##         converted 'X52' from character to factor (0 new NA)
```

```
##         new variable 'OD_rate' (double) with 19 unique values and 28% NA
```

```r
od_practice
```

```
## # A tibble: 198 × 5
##    X28                               X52                       X72   X73 OD_rate
##    <fct>                             <fct>                   <dbl> <dbl>   <dbl>
##  1 Neither important nor unimportant Neither important nor …     0    NA    NA  
##  2 Neither important nor unimportant Very important             20    18     0.9
##  3 Neither important nor unimportant Very important             10    10     1  
##  4 Neither important nor unimportant Very important              2     2     1  
##  5 Neither important nor unimportant Somewhat important          3     0     0  
##  6 Very important                    Very important              0    NA    NA  
##  7 Neither important nor unimportant Very important              3     0     0  
##  8 Neither important nor unimportant Somewhat important        100     0     0  
##  9 Neither important nor unimportant Somewhat important          1     0     0  
## 10 Very important                    Very important              1     1     1  
## # … with 188 more rows
```
…
